D:\Java\Hillel Java EE\java_practice_3_18\servlets\src\main\java\com\hillel\exception\ValidationException.java
D:\Java\Hillel Java EE\java_practice_3_18\servlets\src\main\java\com\hillel\web\constant\ParametersNames.java
D:\Java\Hillel Java EE\java_practice_3_18\servlets\src\main\java\com\hillel\exception\UserNotFoundException.java
D:\Java\Hillel Java EE\java_practice_3_18\servlets\src\main\java\com\hillel\web\servlet\SignUp.java
D:\Java\Hillel Java EE\java_practice_3_18\servlets\src\main\java\com\hillel\exception\Messages.java
D:\Java\Hillel Java EE\java_practice_3_18\servlets\src\main\java\com\hillel\web\filter\UserFilter.java
D:\Java\Hillel Java EE\java_practice_3_18\servlets\src\main\java\com\hillel\entity\Status.java
D:\Java\Hillel Java EE\java_practice_3_18\servlets\src\main\java\com\hillel\web\servlet\LogOut.java
D:\Java\Hillel Java EE\java_practice_3_18\servlets\src\main\java\com\hillel\storage\Storage.java
D:\Java\Hillel Java EE\java_practice_3_18\servlets\src\main\java\com\hillel\web\servlet\UserServlet.java
D:\Java\Hillel Java EE\java_practice_3_18\servlets\src\main\java\com\hillel\dto\UserDTO.java
D:\Java\Hillel Java EE\java_practice_3_18\servlets\src\main\java\com\hillel\exception\StorageException.java
D:\Java\Hillel Java EE\java_practice_3_18\servlets\src\main\java\com\hillel\service\UserService.java
D:\Java\Hillel Java EE\java_practice_3_18\servlets\src\main\java\com\hillel\util\Validator.java
D:\Java\Hillel Java EE\java_practice_3_18\servlets\src\main\java\com\hillel\web\servlet\ViewSuccessPage.java
D:\Java\Hillel Java EE\java_practice_3_18\servlets\src\main\java\com\hillel\web\constant\Paths.java
D:\Java\Hillel Java EE\java_practice_3_18\servlets\src\main\java\com\hillel\util\Converter.java
D:\Java\Hillel Java EE\java_practice_3_18\servlets\src\main\java\com\hillel\web\listener\ContextListener.java
D:\Java\Hillel Java EE\java_practice_3_18\servlets\src\main\java\com\hillel\web\servlet\ViewAllUsers.java
D:\Java\Hillel Java EE\java_practice_3_18\servlets\src\main\java\com\hillel\exception\AppException.java
D:\Java\Hillel Java EE\java_practice_3_18\servlets\src\main\java\com\hillel\entity\Note.java
D:\Java\Hillel Java EE\java_practice_3_18\servlets\src\main\java\com\hillel\web\servlet\LogIn.java
D:\Java\Hillel Java EE\java_practice_3_18\servlets\src\main\java\com\hillel\web\servlet\NoteServlet.java
D:\Java\Hillel Java EE\java_practice_3_18\servlets\src\main\java\com\hillel\entity\User.java
